# Run started at 17:46:05.545, terminated on 17:46:05.743 for 10 clients.
# Cnt	Min	Avg	Max
10	175	176	183
# Run started at 17:46:05.744, terminated on 17:46:05.798 for 20 clients.
# Cnt	Min	Avg	Max
20	47	49	54
# Run started at 17:46:05.798, terminated on 17:46:05.888 for 40 clients.
# Cnt	Min	Avg	Max
40	85	87	89
# Run started at 17:46:05.889, terminated on 17:46:06.030 for 80 clients.
# Cnt	Min	Avg	Max
80	130	135	139
# Run started at 17:46:06.030, terminated on 17:46:06.292 for 160 clients.
# Cnt	Min	Avg	Max
160	249	254	261
# Run started at 17:46:06.292, terminated on 17:46:06.689 for 320 clients.
# Cnt	Min	Avg	Max
320	358	377	397
# Run started at 17:46:06.690, terminated on 17:46:07.385 for 640 clients.
# Cnt	Min	Avg	Max
640	654	673	695
