# Run started at 15:34:51.264, terminated on 15:34:51.538 for 10 clients.
# Cnt	Min	Avg	Max
10	250	252	262
# Run started at 15:34:51.540, terminated on 15:34:51.626 for 20 clients.
# Cnt	Min	Avg	Max
20	31	56	76
# Run started at 15:34:51.626, terminated on 15:34:51.759 for 40 clients.
# Cnt	Min	Avg	Max
40	25	60	101
# Run started at 15:34:51.760, terminated on 15:34:51.944 for 80 clients.
# Cnt	Min	Avg	Max
80	10	72	163
# Run started at 15:34:51.945, terminated on 15:34:52.226 for 160 clients.
# Cnt	Min	Avg	Max
160	3	19	58
# Run started at 15:34:52.227, terminated on 15:34:52.536 for 320 clients.
# Cnt	Min	Avg	Max
320	3	167	296
# Run started at 15:34:52.536, terminated on 15:34:52.977 for 640 clients.
# Cnt	Min	Avg	Max
640	200	283	433
